{
    "feed": {
        "lang": "en_US",
        "id": "tempo",
        "title": "Appian All Feed",
        "updated": "2021-08-17T19:04:39.938Z",
        "generator": {
            "version": "21.4.0.155",
            "uri": "https://an-appian-instance.host.net/suite/",
            "value": "Appian"
        },
        "icon": "https://an-appian-instance.host.net/suite/framework/img/favicon.ico",
        "logo": "https://an-appian-instance.host.net/suite/portal/img/skins/default/companylogo.png",
        "links": [
            {
                "href": "https://an-appian-instance.host.net/suite/",
                "rel": "related",
                "title": "Appian"
            },
            {
                "href": "https://an-appian-instance.host.net/suite/rest/a/content/latest/iwBU8YV4nEFVwMuczAHE8LDdYi4fcqPT6Hb1b8FFO9AuKoAdRjodcdLzAxz8g/o",
                "rel": "avatar",
                "title": "Avatar for sam.mcbroom",
                "extensions": [
                    {
                        "name": "x-single-density-image",
                        "attributes": {
                            "xmlns": "http://www.appian.com/ae/types/2009"
                        },
                        "children": [
                            "https://an-appian-instance.host.net/suite/rest/a/content/latest/iwBU8YV4nEFVwMuczAHE8LDdYm4fcqPT6EbHDEEqa4QXCccurv4uFb7cRG8Cg/o"
                        ]
                    }
                ]
            },
            {
                "href": "https://an-appian-instance.host.net/suite/rest/a/user/latest/iwBU8YV4nEFVwMuc3JeRt6YJNEbPAjRJcJd_JLI0ZgOl19_gSby8J5TPb69ug/about",
                "rel": "x-me-about",
                "title": "User information for sam.mcbroom"
            },
            {
                "href": "https://an-appian-instance.host.net/suite/api/feed/tempo?uid=sam.mcbroom&t=e,b,x,f&m=menu-profile",
                "rel": "me",
                "title": "User profile for sam.mcbroom"
            },
            {
                "href": "https://an-appian-instance.host.net/suite/rest/a/record/latest/noBU8YV4nEFVwMuczQOCIudM3UkNAlA8L5L2uvy_kqnjl32ToAtwrd2hDpTzTaQOmRPhS7HGpykJ859QRCcKDpqWlQ4WO8iV_JjHRMUrQbs79MhoDt_43I-3PpTALqtFskBZ8y5R6wQZ4BpwlBcD5zTRnMQ3XVAKGoaqQ/dashboards/summary",
                "rel": "x-user-record",
                "title": "User record for sam.mcbroom"
            },
            {
                "href": "https://an-appian-instance.host.net/suite/rest/a/content/latest/ikBU8YV4nEFVwMuczkJG8HHaCmBjdsqIeG58C215oGDUJJA_DvZTXAZZQ/o",
                "rel": "x-user-cover-photo"
            },
            {
                "href": "https://an-appian-instance.host.net/suite/api/feed/tempo?t=e,x,b&m=menu-news&st=o",
                "rel": "menu-news",
                "title": "News"
            },
            {
                "href": "https://an-appian-instance.host.net/suite/api/feed/tempo?m=menu-tasks&t=t&s=pt&defaultFacets=%5Bstatus-open%5D",
                "rel": "menu-tasks",
                "title": "Tasks",
                "extensions": [
                    {
                        "name": "thr:count",
                        "attributes": {
                            "xmlns:thr": "http://purl.org/syndication/thread/1.0"
                        },
                        "children": [
                            "0"
                        ]
                    }
                ]
            },
            {
                "href": "https://an-appian-instance.host.net/suite/api/feed/record",
                "rel": "menu-records",
                "title": "Records"
            },
            {
                "href": "https://an-appian-instance.host.net/suite/rest/a/uicontainer/latest/reports",
                "rel": "menu-reports",
                "title": "Reports"
            },
            {
                "href": "https://an-appian-instance.host.net/suite/api/feed/tempo?m=menu-actions",
                "rel": "menu-actions",
                "title": "Actions"
            },
            {
                "href": "https://an-appian-instance.host.net/suite/api/feed/tempo",
                "rel": "service.post",
                "title": "Add a broadcast message"
            },
            {
                "href": "https://an-appian-instance.host.net/suite/api/feed/tempo",
                "rel": "followers",
                "title": "Send a message to followers"
            },
            {
                "href": "https://an-appian-instance.host.net/suite/rest/a/suggest/latest/recipients?q=",
                "rel": "x-suggested-recipients",
                "title": "Get recipient suggestions"
            },
            {
                "href": "https://an-appian-instance.host.net/suite/rest/a/suggest/latest/kudos_users?q=",
                "rel": "x-suggested-kudos-recipients",
                "title": "Get Kudos user suggestions"
            },
            {
                "href": "https://an-appian-instance.host.net/suite/rest/a/suggest/latest/users?q=",
                "rel": "x-suggested-tasks-recipients",
                "title": "Get user suggestions"
            },
            {
                "href": "https://an-appian-instance.host.net/suite/api/groups/broadcast-targets",
                "rel": "groups"
            },
            {
                "href": "https://an-appian-instance.host.net/suite/api/tempo/open-a-case/available-actions",
                "rel": "available-actions",
                "title": "Actions"
            },
            {
                "href": "https://an-appian-instance.host.net/suite/api/feed/tempo",
                "rel": "self",
                "title": "Appian All Feed"
            },
            {
                "href": "https://an-appian-instance.host.net/suite/api/tempo/open-a-case/available-actions?ids=&c=20",
                "rel": "filter-all",
                "title": "All"
            },
            {
                "href": "https://an-appian-instance.host.net/suite/api/tempo/open-a-case/available-actions?f=true&ids=&c=20",
                "rel": "filter-starred",
                "title": "Starred"
            },
            {
                "href": "https://an-appian-instance.host.net/suite/",
                "rel": "selected-menu-item",
                "title": "menu-actions"
            },
            {
                "href": "https://an-appian-instance.host.net/suite/api/feed/tempo?m=menu-actions&c=20",
                "rel": "default-filter",
                "title": "Actions"
            },
            {
                "href": "https://an-appian-instance.host.net/suite/api/tempo/subscription/create",
                "rel": "subscribe"
            },
            {
                "href": "https://an-appian-instance.host.net/suite/api/tempo/favorite/create",
                "rel": "favorite",
                "title": "Add star"
            },
            {
                "href": "https://an-appian-instance.host.net/suite/api/tempo/file",
                "rel": "upload",
                "title": "Mobile File Upload Servlet",
                "extensions": [
                    {
                        "name": "maxFileSize",
                        "attributes": {
                            "xmlns": "http://www.appian.com/ae/types/2009"
                        },
                        "children": [
                            "1073741824"
                        ]
                    }
                ]
            }
        ],
        "extensions": [
            {
                "name": "Facet",
                "attributes": {
                    "xmlns": "http://www.appian.com/ae/types/2009"
                },
                "children": [
                    "{\"#v\":[{\"name\":\"Applications\",\"options\":[{\"id\":\"_a-0000e234-32f8-8000-9ba2-011c48011c48_16781163\",\"name\":\"A-Scores\",\"isApplied\":false,\"dataCount\":1},{\"id\":\"_a-0000e0b7-1d82-8000-9ba2-011c48011c48_14209756\",\"name\":\"Adobe Document Security\",\"isApplied\":false,\"dataCount\":1},{\"id\":\"_a-0000dc3e-43c2-8000-a34e-01ef9001ef90_4464\",\"name\":\"Agile Product Marketing Cases\",\"isApplied\":false,\"dataCount\":1},{\"id\":\"_a-0000d7dc-7dea-8000-4594-010000010000_1166\",\"name\":\"Appian Business Application\",\"isApplied\":false,\"dataCount\":3},{\"id\":\"_a-0000ddd9-b652-8000-9ba2-011c48011c48_31254\",\"name\":\"Appian Cloud Metrics\",\"isApplied\":false,\"dataCount\":1},{\"id\":\"_a-0000df40-b2f1-8000-9ba2-011c48011c48_1499489\",\"name\":\"Appian Conference Rooms\",\"isApplied\":false,\"dataCount\":1},{\"id\":\"_a-0000d5af-eac5-8000-0d1b-680000680000_2187\",\"name\":\"Appian Parking Lottery\",\"isApplied\":false,\"dataCount\":1},{\"id\":\"_a-0000de2b-eaf1-8000-9ba2-011c48011c48_415927\",\"name\":\"Appian Suggestions\",\"isApplied\":false,\"dataCount\":1},{\"id\":\"_a-0000d21f-b5ee-8000-7be3-680000680000_505\",\"name\":\"Appian TypeBuilder\",\"isApplied\":false,\"dataCount\":1},{\"id\":\"_a-0000df2b-9e26-8000-9ba2-011c48011c48_916896\",\"name\":\"AppianLIFE\",\"isApplied\":false,\"dataCount\":1},{\"id\":\"_a-0000e44b-87f3-8000-9c07-011c48011c48_21672929\",\"name\":\"Automated Clone Testing\",\"isApplied\":false,\"dataCount\":1},{\"id\":\"_a-0000e0dd-58e6-8000-9ba2-011c48011c48_15314246\",\"name\":\"Bulk Follow\",\"isApplied\":false,\"dataCount\":2},{\"id\":\"_a-0000e4f5-3ec9-8000-9c30-011c48011c48_23826074\",\"name\":\"Career Compass\",\"isApplied\":false,\"dataCount\":1},{\"id\":\"_a-0000d6cf-4bee-8000-9ba2-011c48011c48_3495\",\"name\":\"CoE\",\"isApplied\":false,\"dataCount\":3},{\"id\":\"_a-0000de52-a974-8000-9ba2-011c48011c48_6701\",\"name\":\"Competitive Intelligence (NEW)\",\"isApplied\":false,\"dataCount\":1},{\"id\":\"_a-0000d244-7662-8000-9ba2-011c48011c48_572\",\"name\":\"Continuous Integration\",\"isApplied\":false,\"dataCount\":1},{\"id\":\"_a-0000d4ac-b677-8000-9ba2-011c48011c48_28755\",\"name\":\"Corporate\",\"isApplied\":false,\"dataCount\":1},{\"id\":\"_a-0000d646-30ce-8000-bc52-010000010000_1194\",\"name\":\"CRM\",\"isApplied\":false,\"dataCount\":1},{\"id\":\"_a-0000e3cb-997f-8000-9bef-011c48011c48_20563509\",\"name\":\"Database Reviews\",\"isApplied\":false,\"dataCount\":1},{\"id\":\"_a-0000df63-043c-8000-9ba2-011c48011c48_2160910\",\"name\":\"Design Reviews\",\"isApplied\":false,\"dataCount\":1},{\"id\":\"_a-0000dc35-004d-8000-9ba2-011c48011c48_230706\",\"name\":\"Employee Emergency Check In\",\"isApplied\":false,\"dataCount\":1},{\"id\":\"_a-0000d2e7-9121-8000-8dff-820000820000_938\",\"name\":\"Engineering\",\"isApplied\":false,\"dataCount\":5},{\"id\":\"_a-0000dc00-33ed-8000-9ba2-011c48011c48_216823\",\"name\":\"Engineering Education\",\"isApplied\":false,\"dataCount\":2},{\"id\":\"_a-0000e2eb-64af-8000-9ba6-011c48011c48_18343332\",\"name\":\"Engineering Modern Records - Tribes and Teams\",\"isApplied\":false,\"dataCount\":1},{\"id\":\"_a-0000e4c6-e8f4-8000-9c26-011c48011c48_23389261\",\"name\":\"Feature Presentations\",\"isApplied\":false,\"dataCount\":1},{\"id\":\"_a-0000d36a-fb0b-8000-7f13-0a0000ca044c_101353\",\"name\":\"Human Resources\",\"isApplied\":false,\"dataCount\":1},{\"id\":\"_a-0000d376-4fdc-8000-8392-0a000064044c_19437\",\"name\":\"IT Service Desk\",\"isApplied\":false,\"dataCount\":3},{\"id\":\"0000d0ec-f6bc-8000-9ba2-011c48011c48\",\"name\":\"Marketing\",\"isApplied\":false,\"dataCount\":2},{\"id\":\"_a-0001dddf-99e5-8000-9ba2-011c48011c48_453133\",\"name\":\"Marketing Event Tracker\",\"isApplied\":false,\"dataCount\":2},{\"id\":\"_a-0000e234-32f8-8000-9ba2-011c48011c48_16811788\",\"name\":\"Non-Disclosure Agreement Application (NDA) All Objects\",\"isApplied\":false,\"dataCount\":1},{\"id\":\"_a-0000e563-dac8-8000-9c4a-011c48011c48_24771757\",\"name\":\"Owl\",\"isApplied\":false,\"dataCount\":1},{\"id\":\"_a-0000e467-9d68-8000-9c0c-011c48011c48_22066248\",\"name\":\"Partner CSAT Survey\",\"isApplied\":false,\"dataCount\":1},{\"id\":\"_a-0000d255-ebd1-8000-5454-680000680000_139\",\"name\":\"Professional Services\",\"isApplied\":false,\"dataCount\":4},{\"id\":\"_a-0000d9de-366d-8000-9e06-010000010000_2934\",\"name\":\"PS Voting Application\",\"isApplied\":false,\"dataCount\":1},{\"id\":\"_a-0000e311-1ae2-8000-9bb2-011c48011c48_18644293\",\"name\":\"Remote User Management \",\"isApplied\":false,\"dataCount\":1},{\"id\":\"_a-0000dfcc-5ef4-8000-9ba2-011c48011c48_670200\",\"name\":\"SSL Labs Reporting\",\"isApplied\":false,\"dataCount\":1},{\"id\":\"_a-0000dabf-635c-8000-599c-010000010000_2925\",\"name\":\"Survey App\",\"isApplied\":false,\"dataCount\":2},{\"id\":\"_a-0000df7e-a8c3-8000-9ba2-011c48011c48_3161278\",\"name\":\"Tech Projects\",\"isApplied\":false,\"dataCount\":1},{\"id\":\"_a-0000e610-0f52-8000-9cce-011c48011c48_27366698\",\"name\":\"Website Issue Tracker\",\"isApplied\":false,\"dataCount\":1}],\"isVisible\":true,\"defaultOption\":\"\",\"numOmittedOptions\":0,\"omittedOptionsDataCount\":0,\"isExclusiveOptions\":true,\"allowMultipleSelections\":false,\"facetType\":\"\",\"sourceRef\":\"\"}],\"#t\":\"Facet?list\"}"
                ]
            }
        ],
        "attributes": {
            "xml:lang": "en_US"
        }
    }
}